{
    "Comments": [
        "This is the Json Response for Searhcing For word 'Car' "
    ]
}

{"photos":{"page":1,"pages":2079,"perpage":100,"total":207829,"photo":[{"id":"51634176524","owner":"194269742@N07","secret":"f0035bc8f3","server":"65535","farm":66,"title":"Carabao Cup quarterfinals draw: Date, time, stream, teams & matches","ispublic":1,"isfriend":0,"isfamily":0},{"id":"51633746418","owner":"94423724@N00","secret":"3c886d8351","server":"65535","farm":66,"title":"Baby","ispublic":1,"isfriend":0,"isfamily":0},{"id":"51634145414","owner":"91045410@N00","secret":"1cf565e683","server":"65535","farm":66,"title":"LAU_1280-23","ispublic":1,"isfriend":0,"isfamily":0},{"id":"51633492431","owner":"91045410@N00","secret":"3a5f9b9c98","server":"65535","farm":66,"title":"LAU_1291-34","ispublic":1,"isfriend":0,"isfamily":0},{"id":"51634342990","owner":"145038367@N05","secret":"27a15e4058","server":"65535","farm":66,"title":"black-cat-and-spider-vector-21829651","ispublic":1,"isfriend":0,"isfamily":0},{"id":"51634133934","owner":"192703160@N05","secret":"467a2e7241","server":"65535","farm":66,"title":"Ling Ling","ispublic":1,"isfriend":0,"isfamily":0},{"id":"51633467011","owner":"30481800@N03","secret":"7a0444cf86","server":"65535","farm":66,"title":"Main Actor","ispublic":1,"isfriend":0,"isfamily":0},{"id":"51633456981","owner":"193791616@N08","secret":"0f4734ebbc","server":"65535","farm":66,"title":"C\u00e1ch c\u1eaft t\u1ea5m polycarbonate \u0111\u01a1n gi\u1ea3n nh\u1ea5t hi\u1ec7n nay","ispublic":1,"isfriend":0,"isfamily":0},{"id":"51634285365","owner":"13212912@N00","secret":"9016de72d1","server":"65535","farm":66,"title":"horror movie vibes","ispublic":1,"isfriend":0,"isfamily":0},{"id":"51634284120","owner":"13212912@N00","secret":"6830f7f440","server":"65535","farm":66,"title":"Let's go interview Devon Murray","ispublic":1,"isfriend":0,"isfamily":0},{"id":"51634082234","owner":"13212912@N00","secret":"e249e99e09","server":"65535","farm":66,"title":"Unboxing a mystery box","ispublic":1,"isfriend":0,"isfamily":0},{"id":"51633655088","owner":"13212912@N00","secret":"49d20b1f27","server":"65535","farm":66,"title":"Joop wants more teeth","ispublic":1,"isfriend":0,"isfamily":0},{"id":"51634304670","owner":"31029248@N00","secret":"49111d32ec","server":"65535","farm":66,"title":"\u00ab Comment \u00e7a, y a plus de croquettes ? \u00bb #Elw\u00eb #nofilter #catinlove #cat #tabby #chat #instacat #catinstagram #catstagram #catsofinstagram #cats #catinlove #gingercat #orangecat #orangetabby #ilovemycat #porncat #\ud83d\ude3b #\ud83d\ude3a","ispublic":1,"isfriend":0,"isfamily":0},{"id":"51633673373","owner":"33635202@N03","secret":"8ca1b8e102","server":"65535","farm":66,"title":"Kass","ispublic":1,"isfriend":0,"isfamily":0},{"id":"51634090184","owner":"193932727@N05","secret":"a952ce2bd9","server":"65535","farm":66,"title":"Mr. Niall","ispublic":1,"isfriend":0,"isfamily":0},{"id":"51634201630","owner":"64873675@N00","secret":"c9f4f82c93","server":"65535","farm":66,"title":"Pet aisle at Target","ispublic":1,"isfriend":0,"isfamily":0},{"id":"51633652848","owner":"193932727@N05","secret":"f471800ed8","server":"65535","farm":66,"title":"Memories with Maya","ispublic":1,"isfriend":0,"isfamily":0},{"id":"51633422406","owner":"192690116@N05","secret":"c2287c66e2","server":"65535","farm":66,"title":"Class action: Connecting with people from different places | David Cates","ispublic":1,"isfriend":0,"isfamily":0},{"id":"51633639093","owner":"194210428@N03","secret":"4ecb3d5c62","server":"65535","farm":66,"title":"De Ce Sa Angajati Specialisti pentru Instalare Panouri Fotovoltaice","ispublic":1,"isfriend":0,"isfamily":0},{"id":"51632587897","owner":"194197897@N04","secret":"c46e36db14","server":"65535","farm":66,"title":"Black Cat momifi\u00e9e","ispublic":1,"isfriend":0,"isfamily":0},{"id":"51632567487","owner":"188822316@N08","secret":"ea5c6c6cd4","server":"65535","farm":66,"title":"Ren\u00e9 Magritte - The door (Die Tu\u0308r), 1942","ispublic":1,"isfriend":0,"isfamily":0},{"id":"51632582552","owner":"194197897@N04","secret":"3b605088cc","server":"65535","farm":66,"title":"Black Cat intern\u00e9e","ispublic":1,"isfriend":0,"isfamily":0},{"id":"51632541107","owner":"27816935@N00","secret":"70b45702a4","server":"65535","farm":66,"title":"Cat","ispublic":1,"isfriend":0,"isfamily":0},{"id":"51634005949","owner":"14446858@N08","secret":"2773e57810","server":"65535","farm":66,"title":"CAH_4220 lucy","ispublic":1,"isfriend":0,"isfamily":0},{"id":"51634206545","owner":"152885657@N03","secret":"29f34ab1fa","server":"65535","farm":66,"title":"cat","ispublic":1,"isfriend":0,"isfamily":0},{"id":"51633316371","owner":"194197897@N04","secret":"3d6d3bc1f1","server":"65535","farm":66,"title":"Black Cat en danger 2","ispublic":1,"isfriend":0,"isfamily":0},{"id":"51632482152","owner":"194271104@N08","secret":"5bf1222f38","server":"65535","farm":66,"title":"sabrina cat eyes","ispublic":1,"isfriend":0,"isfamily":0},{"id":"51632472477","owner":"165149735@N05","secret":"7e0dbf80e6","server":"65535","farm":66,"title":"I like my coffee black, like my cat","ispublic":1,"isfriend":0,"isfamily":0},{"id":"51632471217","owner":"96419267@N00","secret":"e5d66faab9","server":"65535","farm":66,"title":"Space Invader IST_20","ispublic":1,"isfriend":0,"isfamily":0},{"id":"35671643916","owner":"94209416@N06","secret":"a6ee76212f","server":"4261","farm":5,"title":"Red Panda (Ailurus fulgens)","ispublic":1,"isfriend":0,"isfamily":0},{"id":"51633290116","owner":"134422465@N06","secret":"e926d19e87","server":"65535","farm":66,"title":"Nice update on the cats and covid info from SNZ","ispublic":1,"isfriend":0,"isfamily":0},{"id":"51632461687","owner":"59919480@N06","secret":"707dac16b5","server":"65535","farm":66,"title":"Autumn mood","ispublic":1,"isfriend":0,"isfamily":0},{"id":"51633500613","owner":"18446961@N00","secret":"4a3b899978","server":"65535","farm":66,"title":"Jelly & Bean are bonded brothers looking for a home together. They are FeLV+ so they must be in a home with no other cats (dogs might be ok tho!) They're in excellent health and would love more space to play. Contact our friends @giddy.monster for more in","ispublic":1,"isfriend":0,"isfamily":0},{"id":"51633901694","owner":"60020220@N07","secret":"e02fedc588","server":"65535","farm":66,"title":"Mausoleos Romanos de C\u00f3rdoba","ispublic":1,"isfriend":0,"isfamily":0},{"id":"51633486608","owner":"191896688@N06","secret":"e2d032e537","server":"65535","farm":66,"title":"Various \u2013 Great Googly Moo And More Undisputed Truths 50&#39;s 60&#39;s Rock & Roll, Rhythm & Blues Music Album Compilation","ispublic":1,"isfriend":0,"isfamily":0},{"id":"51634108430","owner":"33847785@N00","secret":"e59733b8c6","server":"65535","farm":66,"title":"Cat in a hat.","ispublic":1,"isfriend":0,"isfamily":0},{"id":"51634096160","owner":"148429504@N02","secret":"1480cf9c9e","server":"65535","farm":66,"title":"\u24c2\ud83d\udc8b","ispublic":1,"isfriend":0,"isfamily":0},{"id":"51634086245","owner":"140097441@N02","secret":"bc1495df0b","server":"65535","farm":66,"title":"Interacting Galaxies NGC 5395 and NGC 5394 (ARP 84), and 2 Remote Quasars, Canes Venatici","ispublic":1,"isfriend":0,"isfamily":0},{"id":"51633457523","owner":"140097441@N02","secret":"ab6ba45289","server":"65535","farm":66,"title":"ARP84 NGC5395 (GG) (Heron G) CVen E1LGS 1800 Tak 150x1105mm 4x 25x300''","ispublic":1,"isfriend":0,"isfamily":0},{"id":"51632392677","owner":"50607770@N08","secret":"aa2fb32118","server":"65535","farm":66,"title":"First try with EFS 55-250mm zoom lens","ispublic":1,"isfriend":0,"isfamily":0},{"id":"51634070045","owner":"50607770@N08","secret":"cc9559e58a","server":"65535","farm":66,"title":"First try with EFS 55-250mm zoom lens","ispublic":1,"isfriend":0,"isfamily":0},{"id":"51634066640","owner":"146972615@N05","secret":"a6d6ecc2d3","server":"65535","farm":66,"title":"other-cats-Eforie_2006_0909_094246","ispublic":1,"isfriend":0,"isfamily":0},{"id":"51633865649","owner":"146972615@N05","secret":"a9b96db482","server":"65535","farm":66,"title":"other-cats-Eforie_2006_0910_155900","ispublic":1,"isfriend":0,"isfamily":0},{"id":"51634066615","owner":"146972615@N05","secret":"6d72d08bb8","server":"65535","farm":66,"title":"other-cats-Eforie_2006_0910_155905","ispublic":1,"isfriend":0,"isfamily":0},{"id":"51633438873","owner":"146972615@N05","secret":"f621a79f18","server":"65535","farm":66,"title":"other-cats-Eforie_2006_0910_155915","ispublic":1,"isfriend":0,"isfamily":0},{"id":"51633438868","owner":"146972615@N05","secret":"808ea8a646","server":"65535","farm":66,"title":"other-cats-Eforie_2006_0910_155917","ispublic":1,"isfriend":0,"isfamily":0},{"id":"51633438463","owner":"146972615@N05","secret":"20bbf9dc0a","server":"65535","farm":66,"title":"other-cats-Eforie_2006_0912_172332","ispublic":1,"isfriend":0,"isfamily":0},{"id":"51634066185","owner":"146972615@N05","secret":"c3cb2e5784","server":"65535","farm":66,"title":"other-cats-Eforie_2006_0912_172352","ispublic":1,"isfriend":0,"isfamily":0},{"id":"51633212646","owner":"146972615@N05","secret":"9f47ce6d87","server":"65535","farm":66,"title":"other-cats-Eforie_2006_0912_172252","ispublic":1,"isfriend":0,"isfamily":0},{"id":"51633863359","owner":"194288308@N06","secret":"34808e865c","server":"65535","farm":66,"title":"Cat","ispublic":1,"isfriend":0,"isfamily":0},{"id":"51633436508","owner":"146972615@N05","secret":"aed516a1de","server":"65535","farm":66,"title":"TOPIX HUNGARY WILDLIFE","ispublic":1,"isfriend":0,"isfamily":0},{"id":"51634049045","owner":"186228422@N04","secret":"dfc37bf169","server":"65535","farm":66,"title":"France, Normandy, St.Aubert, October2021, Dahlias&jug2","ispublic":1,"isfriend":0,"isfamily":0},{"id":"51632359092","owner":"78517182@N07","secret":"981e3699b4","server":"65535","farm":66,"title":"Back in the Basement","ispublic":1,"isfriend":0,"isfamily":0},{"id":"51633833154","owner":"67490603@N04","secret":"fbfbf1d5c2","server":"65535","farm":66,"title":"20210927_BacktheCatWinner_JH_008","ispublic":1,"isfriend":0,"isfamily":0},{"id":"51634034280","owner":"192569339@N06","secret":"d8d071c4e6","server":"65535","farm":66,"title":"Most Beautiful Cat","ispublic":1,"isfriend":0,"isfamily":0},{"id":"51634034010","owner":"67490603@N04","secret":"bdd74a7e9c","server":"65535","farm":66,"title":"20210825_CatsonBlast_JH_019","ispublic":1,"isfriend":0,"isfamily":0},{"id":"51634033985","owner":"67490603@N04","secret":"fae94bc372","server":"65535","farm":66,"title":"20210825_CatsonBlast_JH_028","ispublic":1,"isfriend":0,"isfamily":0},{"id":"51633832474","owner":"67490603@N04","secret":"4ac7bfb241","server":"65535","farm":66,"title":"20210825_CatsonBlast_JH_021","ispublic":1,"isfriend":0,"isfamily":0},{"id":"51633404813","owner":"32569229@N06","secret":"61c91e81ee","server":"65535","farm":66,"title":"CAT 140M3","ispublic":1,"isfriend":0,"isfamily":0},{"id":"51634029510","owner":"67490603@N04","secret":"5bf87053ef","server":"65535","farm":66,"title":"20210825_CatsonBlast_JH_009","ispublic":1,"isfriend":0,"isfamily":0},{"id":"51633174311","owner":"163737965@N05","secret":"6ce3e02d8b","server":"65535","farm":66,"title":"730\/365 - Making a fuss","ispublic":1,"isfriend":0,"isfamily":0},{"id":"51633397648","owner":"67490603@N04","secret":"f5f7156709","server":"65535","farm":66,"title":"20210825_CatsonBlast_JH_004","ispublic":1,"isfriend":0,"isfamily":0},{"id":"51633822214","owner":"22242170@N08","secret":"6655825e2d","server":"65535","farm":66,"title":"Cats and dogs","ispublic":1,"isfriend":0,"isfamily":0},{"id":"51632337797","owner":"116001411@N02","secret":"78f24c90d6","server":"65535","farm":66,"title":"20211026-091646 011 Noahs Ark Animal Cracker Tiger 1095378474","ispublic":1,"isfriend":0,"isfamily":0},{"id":"51634013820","owner":"58635591@N00","secret":"47421d39f7","server":"65535","farm":66,"title":"Happy kitty, sleepy kitty, purr purr purr...","ispublic":1,"isfriend":0,"isfamily":0},{"id":"51633808629","owner":"133625822@N05","secret":"dfb9360ee4","server":"65535","farm":66,"title":"Becca Yahrling","ispublic":1,"isfriend":0,"isfamily":0},{"id":"51633378388","owner":"153680180@N07","secret":"d1acc8c8dd","server":"65535","farm":66,"title":"27 October 2021","ispublic":1,"isfriend":0,"isfamily":0},{"id":"51633151816","owner":"18446961@N00","secret":"b234c29c26","server":"65535","farm":66,"title":"Jelly & Bean are bonded brothers looking for a home together. They are FeLV+ so they must be in a home with no other cats (dogs might be ok tho!) They're in excellent health and would love more space to play. Contact our friends @giddy.monster for more in","ispublic":1,"isfriend":0,"isfamily":0},{"id":"51633791154","owner":"135924873@N02","secret":"667450c19b","server":"65535","farm":66,"title":"English Pub Sign - Cat & Lion, Warrington","ispublic":1,"isfriend":0,"isfamily":0},{"id":"51633660514","owner":"47756470@N03","secret":"a80915f000","server":"65535","farm":66,"title":"Mise\u0301re, hypocrisie, convoitise","ispublic":1,"isfriend":0,"isfamily":0},{"id":"51633787194","owner":"194136383@N02","secret":"dbf6a1a207","server":"65535","farm":66,"title":"Cat Lady Tattoo (Maitreya\/ BOM)","ispublic":1,"isfriend":0,"isfamily":0},{"id":"51633786074","owner":"68224568@N08","secret":"134c822fb4","server":"65535","farm":66,"title":"","ispublic":1,"isfriend":0,"isfamily":0},{"id":"51633360348","owner":"68224568@N08","secret":"cd2195836f","server":"65535","farm":66,"title":"","ispublic":1,"isfriend":0,"isfamily":0},{"id":"51633106361","owner":"138086819@N02","secret":"4e49749aea","server":"65535","farm":66,"title":"Cat on the Rocks","ispublic":1,"isfriend":0,"isfamily":0},{"id":"40016218433","owner":"131770259@N02","secret":"8c11ecc52e","server":"65535","farm":66,"title":"IMG_5135.JPG","ispublic":1,"isfriend":0,"isfamily":0},{"id":"51633345493","owner":"165088754@N08","secret":"11735fa4b1","server":"65535","farm":66,"title":"Persian Cat Price","ispublic":1,"isfriend":0,"isfamily":0},{"id":"51633956360","owner":"13817902@N00","secret":"958634a44b","server":"65535","farm":66,"title":"Kitty Mosaic","ispublic":1,"isfriend":0,"isfamily":0},{"id":"51633737529","owner":"57862012@N06","secret":"4d63dd9d26","server":"65535","farm":66,"title":"Dalmatian puppy Jellybean 2","ispublic":1,"isfriend":0,"isfamily":0},{"id":"51633938860","owner":"57862012@N06","secret":"fce08526e6","server":"65535","farm":66,"title":"Dalmatian puppy Jellybean 3","ispublic":1,"isfriend":0,"isfamily":0},{"id":"51632260492","owner":"57862012@N06","secret":"986d146916","server":"65535","farm":66,"title":"Dalmi pic","ispublic":1,"isfriend":0,"isfamily":0},{"id":"51633938675","owner":"57862012@N06","secret":"bc6bcb3bf0","server":"65535","farm":66,"title":"Bandit Schleck","ispublic":1,"isfriend":0,"isfamily":0},{"id":"51633311308","owner":"152661162@N06","secret":"50d437ebaf","server":"65535","farm":66,"title":"Happy #blackcatday from Shane, our one-eyed, crazy panther of love. Shane loves all cats, all people, and all toys! Truly the whole package! Come meet him today until 8 pm. Still a few slots left for our Halloween candy and wine pairing at 5pm! #adoptdont","ispublic":1,"isfriend":0,"isfamily":0},{"id":"51633938350","owner":"140598890@N05","secret":"57cfc444b0","server":"65535","farm":66,"title":"Masaj ca in Bali, relaxare totala in Bucuresti","ispublic":1,"isfriend":0,"isfamily":0},{"id":"51633708034","owner":"32487938@N05","secret":"0f0eac3757","server":"65535","farm":66,"title":"20210802_0059","ispublic":1,"isfriend":0,"isfamily":0},{"id":"51633909285","owner":"32487938@N05","secret":"b85c299862","server":"65535","farm":66,"title":"20210803_0022_1","ispublic":1,"isfriend":0,"isfamily":0},{"id":"51632231687","owner":"32487938@N05","secret":"1dfce838f4","server":"65535","farm":66,"title":"20210728_0073","ispublic":1,"isfriend":0,"isfamily":0},{"id":"51633055776","owner":"32487938@N05","secret":"b3b7c1bb20","server":"65535","farm":66,"title":"20210728_0062_1","ispublic":1,"isfriend":0,"isfamily":0},{"id":"51633909190","owner":"32487938@N05","secret":"a7ea5ee437","server":"65535","farm":66,"title":"20210728_0055","ispublic":1,"isfriend":0,"isfamily":0},{"id":"51632231652","owner":"68224568@N08","secret":"122aa39d7e","server":"65535","farm":66,"title":"","ispublic":1,"isfriend":0,"isfamily":0},{"id":"51633909160","owner":"32487938@N05","secret":"69172e59e3","server":"65535","farm":66,"title":"20210726_0023","ispublic":1,"isfriend":0,"isfamily":0},{"id":"51633707799","owner":"32487938@N05","secret":"c82c53bb62","server":"65535","farm":66,"title":"20210728_0027","ispublic":1,"isfriend":0,"isfamily":0},{"id":"51633707754","owner":"32487938@N05","secret":"12293e9b38","server":"65535","farm":66,"title":"20210725_0109_1","ispublic":1,"isfriend":0,"isfamily":0},{"id":"51632231447","owner":"32487938@N05","secret":"b6523e40c1","server":"65535","farm":66,"title":"20210724_0123_1","ispublic":1,"isfriend":0,"isfamily":0},{"id":"51633909040","owner":"32487938@N05","secret":"5640a3905f","server":"65535","farm":66,"title":"20210728_0015_1","ispublic":1,"isfriend":0,"isfamily":0},{"id":"51633281873","owner":"32487938@N05","secret":"2e46346738","server":"65535","farm":66,"title":"20210803_0031_1","ispublic":1,"isfriend":0,"isfamily":0},{"id":"51633707574","owner":"32487938@N05","secret":"fff175669c","server":"65535","farm":66,"title":"20210810_0073","ispublic":1,"isfriend":0,"isfamily":0},{"id":"51633281858","owner":"32487938@N05","secret":"6e4c646d6a","server":"65535","farm":66,"title":"20210803_0027","ispublic":1,"isfriend":0,"isfamily":0},{"id":"51633707454","owner":"68224568@N08","secret":"972dc36c52","server":"65535","farm":66,"title":"","ispublic":1,"isfriend":0,"isfamily":0},{"id":"51633931729","owner":"157275659@N08","secret":"ebaa762c72","server":"65535","farm":66,"title":"103 \/\/DIAGON ALLEY \u2728","ispublic":1,"isfriend":0,"isfamily":0},{"id":"51633127101","owner":"36244940@N07","secret":"a56cc4f95d","server":"65535","farm":66,"title":"Cat Scratch Fever","ispublic":1,"isfriend":0,"isfamily":0}]},"stat":"ok"}
